// Jest Snapshot v1, https://goo.gl/fbAQLP

exports[`BottomContent component renders correctly 1`] = `
<Fragment>
  <ActivityMetrics
    entity={
      Object {
        "access_id": "",
        "allow_comments": true,
        "attachment_guid": false,
        "blurb": false,
        "comments:count": undefined,
        "containerObj": undefined,
        "container_guid": "activityguid0",
        "custom_data": false,
        "custom_type": false,
        "description": "Congratulations! ",
        "edited": "",
        "entity_guid": "",
        "getLockType": [Function],
        "guid": "activityguid0",
        "impressions": 0,
        "isOwner": [Function],
        "is_visible": false,
        "mature": false,
        "mature_visibility": false,
        "message": "Message",
        "ownerObj": Object {
          "__list": null,
          "access_id": "",
          "allow_comments": true,
          "blocked": undefined,
          "canary": false,
          "confirmEmail": [Function],
          "disable_autoplay_videos": undefined,
          "email_confirmed": false,
          "eth_wallet": "",
          "founder": false,
          "groupsCount": 0,
          "guid": null,
          "impressions": undefined,
          "isOwner": [Function],
          "is_admin": false,
          "last_accepted_tos": 0,
          "mature": false,
          "mature_visibility": false,
          "mode": 0,
          "nsfw": Array [],
          "onchain_booster": 0,
          "pending_subscribe": false,
          "permissions": Object {},
          "plus": false,
          "plus_method": "tokens",
          "pro": false,
          "pro_method": "tokens",
          "rewards": false,
          "subscribed": undefined,
          "subscriber": false,
          "subscribers_count": undefined,
          "subscriptions_count": 0,
          "subtype": false,
          "tags": Array [],
          "time_created": "1522036284",
          "time_updated": "",
          "type": "user",
          "urn": "",
          "username": "",
          "verified": false,
          "wire_rewards": undefined,
        },
        "owner_guid": "824853017709780997",
        "parent_guid": "838106762591510528",
        "paywall": "",
        "paywall_unlocked": false,
        "perma_url": false,
        "permissions": Object {},
        "pinned": false,
        "quotes": 0,
        "reminds": 0,
        "rowKey": "something0",
        "shouldBeBlured": [MockFunction],
        "subtype": "",
        "thumbnail_src": false,
        "thumbs:down:count": undefined,
        "thumbs:down:user_guids": undefined,
        "thumbs:up:count": undefined,
        "thumbs:up:user_guids": undefined,
        "time_created": "1522036284",
        "time_updated": "",
        "title": "TITLE",
        "type": "activity",
        "urn": "",
        "username": "",
        "wire_totals": Object {
          "tokens": 1000000000000000000,
        },
      }
    }
  />
  <Memo(wrappedComponent)
    entity={
      Object {
        "access_id": "",
        "allow_comments": true,
        "attachment_guid": false,
        "blurb": false,
        "comments:count": undefined,
        "containerObj": undefined,
        "container_guid": "activityguid0",
        "custom_data": false,
        "custom_type": false,
        "description": "Congratulations! ",
        "edited": "",
        "entity_guid": "",
        "getLockType": [Function],
        "guid": "activityguid0",
        "impressions": 0,
        "isOwner": [Function],
        "is_visible": false,
        "mature": false,
        "mature_visibility": false,
        "message": "Message",
        "ownerObj": Object {
          "__list": null,
          "access_id": "",
          "allow_comments": true,
          "blocked": undefined,
          "canary": false,
          "confirmEmail": [Function],
          "disable_autoplay_videos": undefined,
          "email_confirmed": false,
          "eth_wallet": "",
          "founder": false,
          "groupsCount": 0,
          "guid": null,
          "impressions": undefined,
          "isOwner": [Function],
          "is_admin": false,
          "last_accepted_tos": 0,
          "mature": false,
          "mature_visibility": false,
          "mode": 0,
          "nsfw": Array [],
          "onchain_booster": 0,
          "pending_subscribe": false,
          "permissions": Object {},
          "plus": false,
          "plus_method": "tokens",
          "pro": false,
          "pro_method": "tokens",
          "rewards": false,
          "subscribed": undefined,
          "subscriber": false,
          "subscribers_count": undefined,
          "subscriptions_count": 0,
          "subtype": false,
          "tags": Array [],
          "time_created": "1522036284",
          "time_updated": "",
          "type": "user",
          "urn": "",
          "username": "",
          "verified": false,
          "wire_rewards": undefined,
        },
        "owner_guid": "824853017709780997",
        "parent_guid": "838106762591510528",
        "paywall": "",
        "paywall_unlocked": false,
        "perma_url": false,
        "permissions": Object {},
        "pinned": false,
        "quotes": 0,
        "reminds": 0,
        "rowKey": "something0",
        "shouldBeBlured": [MockFunction],
        "subtype": "",
        "thumbnail_src": false,
        "thumbs:down:count": undefined,
        "thumbs:down:user_guids": undefined,
        "thumbs:up:count": undefined,
        "thumbs:up:user_guids": undefined,
        "time_created": "1522036284",
        "time_updated": "",
        "title": "TITLE",
        "type": "activity",
        "urn": "",
        "username": "",
        "wire_totals": Object {
          "tokens": 1000000000000000000,
        },
      }
    }
    onPressComment={[Function]}
  />
  <Scheduled
    isScheduled={false}
    time_created="1522036284"
  />
  <Pending />
</Fragment>
`;
